ose;chose;
ry;writ;written;
own;grown;outgrown;shown;known;thrown;
ist;mistaken;
ous;beset;chosen;lost;
lent;lent;
een;seen;
head;marched;had;dispatched;debauched;
red;ventured;considered;rid;writ;rendred;spared;dared;cured;devoured;procured;bred;trod;appeared;concurred;written;enquired;
nik;excommunicated;
ard;heard;
ate;bate;
ock;spoke;struck;took;spoken;broke;taken;forsaken;mistaken;partaken;undertaken;overtaken;debauched;
end;rendred;
ic;excommunicated;
ol;stole;
a;laid;lain;paid;spared;dared;appeared;staid;said;
ad;read;spread;
il;built;spoilt;
ade;made;
ot;got;wrote;gotten;forgot;
in;lain;
more;enumerated;
one;gone;shone;
ers;overset;
el;felt;
en;arisen;driven;befallen;spoken;gotten;taken;forsaken;given;fallen;mistaken;chosen;partaken;beaten;undertaken;written;overtaken;
i;writ;written;deviated;enquired;
is;arisen;
ent;went;sent;spent;
ide;considered;rid;laid;paid;bid;staid;said;
er;undertaken;overtaken;enumerated;
et;beset;overset;wet;set;met;
most;mistaken;
ar;arisen;partaken;
at;beat;beaten;eat;
t;leapt;left;bought;writ;thought;cut;taken;dropt;fought;put;built;past;taught;learnt;burst;trod;kept;lurkt;burnt;brought;staid;partaken;spoilt;undertaken;written;felt;stole;slept;lost;overtaken;crept;
ese;beset;
ory;bore;
earn;learnt;
le;stole;compleated;
ated;maltreated;intreated;insinuated;treated;deviated;compleated;excommunicated;enumerated;
