hi;hideous;highest;hinder;behind;highly;higher;hither;high;hind;historically;
circum;circumstantial;circumstantially;circumspect;
pur;pursuant;purest;purely;pure;impure;purer;purple;
des;besides;deservedly;destitute;desart;descriptive;desperately;desirous;despicable;destructive;desperate;desirable;
pen;openly;pensive;indispensably;depending;open;dependent;expensive;perpendicular;impenitent;
aph;diaphoretic;
per;imperfect;pernicious;personally;impervious;peradventure;pertinently;perfect;properly;persuasive;perpetual;proper;impertinent;perfidious;personal;perpendicular;imperceptible;imperfectly;desperately;perhaps;perplexedly;perpetually;deeper;peremptory;upper;persian;perfectly;desperate;perverse;properest;permanent;uppermost;perceptible;
ie;readier;easier;transient;easie;aperient;readiest;experienced;antient;easiest;
exo;exorbitant;
epi;epistolary;
ab;abrupt;abortive;affable;arabic;abominably;able;ablest;aimable;disagreable;arabick;abundantly;abandoned;absolutely;absurd;imaginable;abroad;incomparably;incomparable;agreable;comparable;absent;seasonable;irreparable;redeemable;reasonable;reasonably;abundant;recoverable;agreeable;agreeably;absolute;abruptly;absurdly;desirable;inseparable;inseparably;
ac;actual;accordingly;accidentally;actually;acid;acrid;exactly;acute;acceptable;acrimonious;accurate;irreproachable;exact;active;accurately;voraciously;accidental;accountable;
ad;adjacent;peradventure;readier;readily;adequate;adult;readiest;admirable;admirably;adviseable;advisable;advantageous;adjective;ready;advantagious;additional;adventitious;already;dead;
il;easily;readily;ill;illegitimate;illiterate;illustrious;verily;warily;illegal;perilous;
im;imperfect;imperious;immediately;immoderate;impervious;synonimous;impossible;imaginary;importunate;aimable;animal;impertinent;impure;improbable;improbably;imprudent;imaginable;inanimate;impenitent;imperceptible;imperfectly;impoosible;impious;immoderately;immense;impatient;important;immoveable;impetuous;imminent;implicit;immeasurably;immodest;imperial;immediate;implicitly;immensely;
in;intemperate;intestinal;intricate;innermost;industrious;intent;incidental;intimate;injurious;instantaneous;imaginary;inhumanly;inordinate;indirectly;intestine;incognito;indispensably;initial;intirely;industriously;insipid;promising;innumerable;instrumental;insidious;invisible;inexcusable;insufficient;innocent;inviolate;initiatory;incapable;imaginable;inward;inanimate;inland;inviolable;inconstant;instantly;incorporeal;incident;incomparably;incomparable;invincible;invincibly;indian;intimately;indolent;inner;indecent;inestimable;incessantly;inevitably;insensibly;insensible;ingenious;inconsiderable;aluminous;involuntary;indulgent;instant;inclement;inferior;eminent;innate;incorruptible;seemingly;infamous;inconsiderate;insolent;urinary;individual;infinite;intrinsick;inflexible;incumbent;incessant;infallibly;infallible;incredible;inwardly;intense;infinitiely;indefatigable;indifferent;inquisitive;ingenous;inflammatory;inconvenient;within;edifying;intolerable;innocently;becoming;inferiour;ingenuous;inseparable;inseparably;insupportable;instructive;infinitely;intire;
af;afraid;afar;deaf;
ag;courageously;courageous;imaginary;disagreable;again;imaginable;agreable;advantageous;advantagious;agreeable;agreeably;eager;ago;
inter;interchangeably;intermediate;internally;interval;internal;intermittent;
ir;irish;irreproachable;irreparable;desirous;irregular;desirable;
al;alcaline;alphabetical;alert;almost;severally;altogether;aloud;almighty;alone;along;oral;always;really;alcalescent;aluminous;real;cordial;alternately;alternate;imperial;withal;already;
an;animal;ancient;anxious;inanimate;asian;indian;annual;angry;
ap;apropos;apter;aperient;apparent;apparently;apart;apprehensive;cheap;cheapest;applicable;apt;
ar;earliest;dearest;aromatic;dearer;arabic;artfully;earlier;early;desart;imaginary;artificially;ardent;afar;chearfully;arabick;yearly;earthen;earnestly;earthy;urinary;coarse;arbitrary;chearful;artful;coarser;artemisian;dear;earnest;
as;as;easily;easier;assyrian;easie;astringent;assignable;asian;eastern;easiest;seasonable;reasonable;reasonably;assuredly;east;easy;beastly;assiduous;disastrous;
re;renowned;redish;dearest;carefully;dearer;readier;readily;recent;reverse;remediless;restless;erect;indirectly;respectively;disagreable;relative;direct;reconcilable;regularly;readiest;remote;red;serene;really;restorative;agreable;revealed;resolutely;irreproachable;irreparable;careful;redeemable;remarkably;reasonable;reasonably;remarkable;resolute;carefull;careless;recoverable;reddish;religious;real;rebellious;repeated;rest;directly;regular;ready;requisite;agreeable;agreeably;respective;regal;remotest;irregular;correctly;removable;already;
at;at;anatomically;attentively;athenian;inanimate;desperately;attentive;separate;oedematous;separately;comparatively;comparative;desperate;attractive;attainable;
meta;metaphysical;metallic;metalline;
male;malecontent;male;
trans;transient;transparent;transporting;transferable;
sub;subordinate;subservient;substantive;submissive;subject;subsequent;sublime;subtile;substantial;
be;better;beautiful;before;beneficed;beggarly;benevolent;beautifully;behind;beautifull;belike;rebellious;benign;beastly;beauteous;beneficial;becoming;
south;southernmost;southern;southermost;
bi;arabic;biggest;arabick;bitter;bitterest;bitterly;bibulous;amphibious;bigger;exorbitant;bigotted;arbitrary;big;
nowne;renowned;
anti;antiseptic;antient;antique;
out;outmost;out;without;outward;outrageous;outwardly;
gain;again;
amphi;amphibious;
sur;sure;surely;surest;absurd;assuredly;surprisingly;surer;absurdly;
se;serious;deservedly;secret;severe;seventh;secular;presently;subservient;second;consequent;sedentary;secure;reverse;present;severally;averse;antiseptic;senseless;sensibly;senatorial;sensible;servile;sentimentally;seriously;serene;secondly;absent;secretly;seasonable;insensibly;insensible;sensual;separate;separately;seemingly;seventeenth;seditious;severely;severest;subsequent;serous;distressed;securely;servilely;coarse;perverse;consequential;consequently;essential;serviceable;observable;coarser;seldom;inseparable;inseparably;select;
mis;mischievous;promising;promiscuously;miscellaneous;misty;
mal;malicious;dismal;animal;maliciously;
after;after;afterwards;afterward;
semi;semicircular;
ova;oval;
ca;precarious;carefully;alcaline;candid;candidly;comical;incapable;alcalescent;calmly;carnivorous;careful;musical;carefull;careless;captious;cautious;capital;calm;capable;
ambi;ambitious;
a;beautiful;audible;awful;amiss;ammoniac;austere;averse;amiable;ample;amorous;enamelled;beautifully;awkwardly;beautifull;avaricious;awkward;away;amazonian;american;beauteous;awake;audest;
ond;yonder;
e;southernmost;earliest;equitable;errant;elderly;sure;alert;else;easily;elegantly;eighteenth;european;earlier;early;affectionate;purely;equivalent;forreign;eucharistical;surely;eloquent;elevated;evidently;elastic;yearly;pure;yellow;earthen;even;evil;impure;eighth;purer;southern;earnestly;inanimate;same;earthy;eastern;electrical;elegant;electric;inevitably;equally;yet;elect;elliptical;diuretic;equal;eternal;east;easy;ecclesiastical;elder;eleventh;eldest;yellowish;surer;southermost;evident;earnest;aware;
one;alone;abandoned;
i;besides;eighteenth;acid;malicious;forreign;furious;comical;eighth;beside;idly;idle;asian;furiously;musical;comparatively;foreign;auricular;officially;maliciously;comparative;voraciously;identical;italian;ignorant;
co;copperish;courageously;cowardly;courageous;muscovite;incognito;coolly;cooler;colliquative;cold;cool;copious;coldly;colder;costly;recoverable;coloured;coarse;accountable;copiously;coarser;covetous;
off;officially;offensively;offensive;
o;aromatic;hideous;imperious;openly;youngest;abominably;european;enow;oldest;catholic;occasional;furious;open;aloud;old;own;ouzy;geographical;opposite;furiously;catholick;odious;oyly;older;amphibious;aluminous;young;advantageous;parochial;desirous;ostentatious;advantagious;olympick;occasionally;younger;ago;oppressive;enough;perilous;
y;youngest;easily;readily;imaginary;very;yearly;yellow;verily;oyly;yonder;young;yet;warily;urinary;ready;easy;yellowish;edifying;younger;already;
to;anatomically;totally;altogether;too;oedematous;total;together;intolerable;tolerable;tolerably;
cath;catholic;catholick;
dia;diaphoretic;indian;cordial;
com;compassionate;common;comfortably;comfortable;compound;complaisant;compleatest;commode;comical;commonly;compleatly;commendable;combustible;competent;incomparably;incomparable;comparable;comparatively;comparative;complete;compleat;becoming;comprehensive;commodious;
dif;different;differently;difficult;difficultest;indifferent;edifying;
de;dearest;hideous;dearer;defenceless;devout;deepest;sedentary;delightful;decently;deliberately;delicious;detestable;determinable;adequate;ardent;depending;deliberate;determinate;defensive;dependent;demonstrable;beside;determinately;dense;degenerate;decimal;yonder;indecent;redeemable;deeper;deeply;oedematous;deficient;delicate;dextrous;decent;identical;deplorable;indefatigable;definitive;deaf;dead;dear;deep;
fur;further;furious;furiously;
con;conveniently;malecontent;confusedly;contemptible;confoundedly;content;second;consequent;continual;disconsolate;consistent;conceited;constructive;confident;consummate;reconcilable;continually;confused;convenient;conscientiously;consumptive;secondly;constant;inconstant;constitutional;considerate;conform;conscious;inconsiderable;inconsiderate;conversant;contemptuous;consequential;constantly;consequently;considerable;considerably;inconvenient;confederate;contagious;conspicuous;
di;dim;subordinate;readier;readily;prodigiously;accordingly;inordinate;indirectly;depending;dirty;diminutive;direct;ditto;readiest;diligent;contradictory;perpendicular;odious;ordinarily;divine;diverting;seditious;ordinary;directly;divers;individual;diuretic;prodigious;additional;digestive;extraordinary;
vant;advantageous;advantagious;
cor;accordingly;corporal;corruptly;corporate;incorporeal;incorruptible;corrupt;cornish;cordial;corrosive;correctly;
fore;fore;foremost;before;foreign;
dis;redish;discreet;disconsolate;dishonest;dismal;discutient;indispensably;distant;disagreable;distinct;disputable;dissolute;dishonourable;distressed;disgusting;distinctly;disastrous;disdainful;
bes;besides;best;beside;
post;preposterous;
um;aluminous;
tres;distressed;
up;upper;upon;upright;uppermost;
ur;courageously;european;courageous;urgent;urinary;diuretic;
ed;renowned;abandoned;oedematous;assuredly;edifying;
par;partly;partial;particular;apparent;apparently;transparent;apart;particularly;parliamentary;parochial;partially;pardonable;
ef;effeminate;efficacious;effectually;effectual;
che;chearfully;cheerfully;cheerful;cheap;cheapest;chearful;
pre;preremptorily;precarious;prevalent;expressive;precisely;presently;presumptuous;present;preferably;preferable;previously;expressly;preposterous;precipitate;prejudicial;pretty;premature;prettiest;express;preliminary;prettily;precious;predominant;apprehensive;presumptious;presumptive;comprehensive;
ver;vertuous;severe;reverse;severally;averse;verbal;very;ever;verily;diverting;recoverable;verbatim;severely;severest;conversant;divers;perverse;
intra;intractable;
em;empty;exemplary;emphatical;exempt;redeemable;oedematous;peremptory;eminent;seemingly;
en;endemic;enow;transient;aperient;enamelled;apparent;enormous;apparently;experienced;english;antient;enthusiastical;transparent;entire;entirely;eminent;offensively;enough;offensive;
ep;deepest;deeper;deeply;deep;
pro;proportionate;profane;apropos;prodigiously;properly;productive;proper;prophetick;promising;profitably;profitable;improbable;improbably;prophane;probable;probably;proportionably;proportionable;profound;irreproachable;prone;proud;profuse;profoundly;protestant;prodigious;properest;prosperous;promiscuously;
es;dearest;deepest;purest;surest;readiest;easiest;inestimable;severest;especially;cheapest;essential;especial;properest;
ouver;ouvert;
ex;extant;exemplary;expectant;expressive;excretory;extremely;excrementitious;excusable;excellent;expressly;expeditious;exactly;exquisite;externally;inexcusable;experienced;expensive;exempt;excellently;exquisitely;express;exceedingly;extensive;excessively;exact;exceeding;extream;extreamly;exclusive;extreme;expiatory;explicitly;external;excessive;
aur;auricular;
syn;synonimous;
mus;muscovite;musical;muscular;
cis;precisely;
miss;amiss;submissive;
nor;northernmost;inordinate;enormous;northern;northmost;
ob;obstinate;obstinately;obvious;obscurest;oblique;obscure;observable;
para;incomparably;incomparable;comparable;irreparable;separate;separately;comparatively;comparative;inseparable;inseparably;
ana;anatomically;
and;abandoned;
of;oftener;often;oftner;
extra;extravagant;extraordinary;
peri;imperious;aperient;experienced;imperial;perilous;
vor;voraciously;
mes;mesne;warmest;
mise;miserably;miserable;
ge;courageously;courageous;generously;gentle;gently;urgent;generous;gentlest;altogether;geographical;gentler;degenerate;ingenious;german;genteel;advantageous;genuine;eager;generally;ingenous;general;digestive;together;ingenuous;
contra;contractile;contradictory;contrary;
sam;same;
on;synonimous;once;only;along;seasonable;reasonable;reasonably;upon;
aff;affable;affectionate;affluent;affraid;
over;over;
hypo;hypocritical;
gi;prodigiously;imaginary;imaginable;original;advantagious;originally;gibbous;prodigious;
or;subordinate;abortive;ornamental;oral;ordinarily;original;ordinary;exorbitant;originally;extraordinary;
ore;diaphoretic;
war;warlike;cowardly;warm;inward;warmer;warily;outward;afterwards;outwardly;inwardly;warmest;afterward;aware;
counter;counter;
with;without;withal;within;
gy;gymnick;
demi;endemic;
forr;forreign;
