hi;highest;hidden;hither;hirsute;historical;hideous;hinder;behind;highly;higher;histrionic;high;hind;hilly;
circum;circumstantial;circumflex;
hyster;hysterical;
pur;purest;purely;puritan;impure;purer;purposelessly;purposely;pure;purple;
des;besides;deservedly;desgraceful;desirous;desperate;desultory;despotic;destitute;desolate;desperately;designedly;destructive;desirable;
pen;openly;indispensable;open;dependent;expensive;perpendicular;penniless;pensive;penal;expensively;
per;pernicious;impervious;perfect;properly;perpetual;impertinent;imperative;perfidious;personal;perpendicular;imperfectly;perhaps;perpetually;expert;upper;persian;desperate;pert;permanent;permanently;uppermost;imperfect;personally;persuasive;impersonal;proper;perchance;imperceptible;operatic;desperately;pertinent;deeper;peremptory;perennial;cheaper;perfectly;perverse;perceptible;
ie;easier;alien;transient;experienced;easiest;obedient;
exo;exotic;exorbitant;exophthalmic;inexorable;
epi;episcopal;epileptic;epicurean;epidemic;
ab;abominable;absorbingly;abler;absorbing;ablest;absolutely;abroad;incomparably;incomparable;absent;irreparable;reasonable;reasonably;recoverable;abstruse;abject;absolute;absurdly;arable;able;abstract;abundantly;absurd;imaginable;seaboard;abstractly;comparable;seasonable;arab;abundant;diabolical;agreeable;aback;abdominal;abruptly;desirable;inseparable;inexorable;
apo;apostolic;
ac;actual;across;actually;accessible;exactly;acceptable;accurate;academical;exact;accidental;acoustical;accountable;acetic;actively;acutely;accordingly;accidentally;acrid;acute;accomplished;active;accurately;inaccessible;aback;
ad;adjutant;advantageously;adventurous;adequate;adult;deadly;adverse;academical;advisable;paradoxical;additional;already;adherent;maladroit;adjacent;admissible;readily;admirable;admirably;administrative;advantageous;adequately;ready;dead;
il;oily;illuminating;illegitimate;illiterate;verily;illustrative;illegal;epileptic;airily;easily;readily;ill;illustrious;perilous;
im;impressionable;immediately;impervious;animal;experimentally;impertinent;imperative;impure;improbable;experimental;inanimate;immortal;immutable;imperfectly;impious;immense;impatient;immaterial;implicitly;immensely;imperfect;immoderate;impossible;impressive;imaginary;impersonal;imbecile;immature;imaginative;imaginable;imperceptible;implacable;immoderately;immemorial;imitative;important;imminent;imperial;impregnable;immediate;inimical;
ae;anaemic;
in;intemperate;inconsequent;intensive;insoluble;insane;indivisible;intelligible;inexplicable;intricate;intelligent;increasingly;inconsequently;incidental;injurious;instantaneous;intensely;invidious;inclusive;indispensable;indigestible;incog;intenser;insipid;promising;indefinitely;invisible;insufficient;indomitable;indissoluble;inviolate;incapable;inenviably;inward;inanimate;inland;instantly;incident;incomparably;incomparable;invincible;indian;intimately;indolent;inner;insensibly;insensible;inconsiderable;involuntary;instant;infirm;incarnate;eminent;seemingly;infamous;inconsiderate;instantaneously;inversely;incredulously;individual;intrinsically;infinite;industrial;inflexional;indignant;indigestion;incredulous;indifferent;incompetent;inherent;incurable;ineffable;within;intolerable;inside;redeeming;indifferently;invariably;insect;ingenuous;insatiable;eminently;indirect;intellectual;indefinite;inventive;intestinal;inductive;incomplete;intellectually;antonine;innermost;industrious;intent;injuriously;incompatible;intimate;instinctively;imaginary;inmost;ingeniously;intuitive;indirectly;unbecoming;inconveniently;innumerable;indoor;inverse;intrinsic;innocent;imaginative;intolerant;insular;nominal;imaginable;incipient;instinctive;influential;incontestable;individually;incessantly;inevitably;inevitable;indulgent;inextricably;inferior;incomprehensible;incidentally;insolent;inaccessible;inflammable;coincident;inflexible;incessant;infallible;incredible;incredibly;inwardly;indubitably;intense;indefatigably;ingenuously;incorrectly;inscrutable;inflammatory;infectious;insistent;inseparable;inimical;infinitely;inexorable;
af;afraid;aft;african;deaf;
ag;average;eagerly;advantageously;again;agricultural;ago;courageously;courageous;imaginary;aged;imaginative;imaginable;advantageous;agreeable;eager;
inter;intermediate;interested;intermittent;interior;internally;interminable;internal;interestingly;
ir;irish;irreparable;desirous;irremediable;irreligious;airily;irritable;irresolute;airy;irresistible;irregular;affirmative;desirable;irksome;
al;severally;alpine;almighty;oral;always;alcoholic;real;cordial;cordially;parallel;withal;all;already;analogous;alert;almost;alien;ideal;altogether;aloft;aloud;proverbially;alone;along;aloof;nominal;really;proverbial;alway;alternative;orally;penal;alternately;alternate;imperial;
an;angular;anglican;edwardian;animal;ancient;anxious;inanimate;anxiously;ancestral;angelic;indian;annual;anhydrous;ovarian;anyhow;angry;asian;annually;anciently;orange;answerable;
ap;apropos;appropriately;apart;approximately;appreciative;applicable;apt;apparent;apparently;appropriate;cheaper;appreciably;appreciable;apprehensive;cheap;apathetic;
ar;earliest;dearly;articulate;earlier;early;ardent;arborescent;malarious;argal;coarse;argumentative;artificial;artful;coarser;artistic;dearest;bearish;arable;ardently;imaginary;coarsely;artistically;earthen;earthly;arrogantly;earnestly;arab;arrogant;arctic;arbitrary;dear;earnest;
as;as;reasonable;reasonably;ascetic;easy;parasitic;askant;disastrous;easily;easier;astute;assyrian;astonishingly;assiduously;asian;eastern;easiest;seasonable;assuredly;
re;carefully;repayable;remedial;repugnant;dire;repeatedly;restless;recondite;reverential;respectively;relative;reverend;responsible;redundant;direct;remote;serene;reflective;reckless;irreparable;regimental;reasonable;reluctant;reasonably;resolute;reprobate;carelessly;recoverable;reddish;respectable;real;directly;regular;reserved;republican;irremediable;irreligious;relentlessly;relatively;redeeming;already;repellently;indirect;renowned;respectfully;dearest;referable;rectorial;readily;recent;correct;revealing;indirectly;recognisable;resident;irresolute;correspondent;regularly;red;resonant;reputable;remorseless;really;refreshing;reformatory;resolutely;careful;remarkably;remarkable;careless;religious;rebellious;irresistible;rebel;regretfully;respectful;ready;requisite;recently;agreeable;respective;remotest;incorrectly;resourceful;irregular;revengeful;correctly;caressingly;removable;
at;imperative;inanimate;comparatively;diatonic;athletic;attic;deathless;desperate;attractive;decorative;preparatory;atrociously;imaginative;athenian;beatific;operatic;desperately;attentive;separate;anatomical;separately;comparative;attainable;apathetic;oratorical;
meta;metaphysical;metallic;
male;male;
trans;translatable;transcendent;transverse;transient;transparently;transparent;
sub;subservient;subcutaneous;sublimest;subsequent;substantial;subordinate;subtle;substantive;submissive;subject;subsequently;sublime;subjective;
be;better;beautiful;beneficent;benevolent;beautifully;beyond;beneath;beneficially;beauteous;beneficial;betrayal;belgian;bearish;before;bermudian;between;imbecile;behind;beatific;rebellious;rebel;obedient;
south;southern;
mys;mystic;
bi;bilateral;bigger;exorbitant;big;biggest;bitter;proverbially;bitterly;debile;proverbial;bigoted;arbitrary;
anti;antipathetic;antiquarian;
out;outer;without;outward;youthful;outermost;outrageously;
gain;again;
nowne;renowned;
sur;sure;surprised;absurdly;surely;surest;absurd;surprise;assuredly;surgical;
se;deservedly;sedulously;inconsequent;severe;seventh;subservient;inconsequently;diverse;severally;averse;sectarian;seriatim;sexual;sensibly;sensible;seductive;seraphic;seriously;adverse;serene;secondly;absent;secretly;conversely;insensibly;insensible;sensual;consecutive;sensitive;sensory;seemingly;seventeenth;severely;inversely;severest;sensational;subsequent;reserved;coarse;settled;serviceable;transverse;insect;coarser;essentially;serious;representative;secret;secular;presently;second;consequent;secure;present;coarsely;inverse;servile;sectional;septuagenarian;secondarily;secondary;seaboard;subsequently;seasonable;separate;separately;secluded;sententious;senile;perverse;consequently;essential;sentimental;seldom;inseparable;select;
mis;promising;miscellaneous;misty;promiscuous;mischievous;misleading;mischievously;
ka;askant;
mal;malicious;animal;malarious;maltese;normally;normal;maladroit;malignant;dismal;
ke;keen;kentish;keenest;keenly;
after;after;afterwards;
ova;oval;
ca;cantankerous;carefully;carlist;conical;casual;comical;canadian;decanal;hysterical;causal;incapable;academical;musical;carelessly;incarnate;calm;cast;precarious;cambrian;calvinistic;callous;carbonic;candid;cardiac;capillary;captive;calmly;careful;careless;comically;cautious;precariously;capital;economical;carved;capacious;cautiously;caressingly;precautionally;oratorical;surgical;capable;inimical;periodical;
ambi;ambiguous;
archi;architecturally;architectural;
a;beautiful;audible;amiss;aquisitive;ampler;australian;averse;amiably;amiable;ample;amply;authentic;austrian;amuck;enamoured;beautifully;automatic;awkward;amicable;augustinian;available;beauteous;axiomatic;aquatic;awful;airily;austere;amused;airy;ahead;ajar;avoidable;autocratic;august;aweful;away;amazonian;american;amenable;austerer;
ond;beyond;yonder;
e;earliest;eloquently;erstwhile;elderly;elementary;sure;posterior;elegantly;eighteenth;european;earlier;early;equestrian;eyeless;egregious;purely;equivalent;egotistical;elysian;outer;impure;eighth;purer;southern;inanimate;etymological;eligible;electric;electoral;coercive;elliptical;dietetic;equal;easy;ecclesiastical;equatorial;evident;acetic;aware;equitably;ethereal;antonine;alert;else;easily;egyptian;affectionate;elaborate;surely;affectionately;evasive;eventually;evidently;pure;yellow;earthen;concise;even;earthly;evil;elaborately;earnestly;same;eastern;electrical;eccentric;outermost;elegant;eventful;inevitably;inevitable;equally;yet;erroneously;either;economical;eternal;ethical;elder;eldest;equable;earnest;
one;alone;
i;besides;eighteenth;conical;malicious;ignominiously;comical;puritan;hysterical;conic;anaemic;eighth;comic;idle;malarious;coniferous;official;musical;idolatrous;comparatively;foreign;officially;identical;ovarian;parasitic;italian;ignorant;decorative;selfish;bearish;malignant;icy;furious;ideal;beatific;asian;furiously;operatic;veritable;comically;either;ivied;comparative;designedly;economical;enigmatic;ignobly;oratorical;
hemi;hemispherical;
co;cowardly;incog;coldly;alcoholic;costly;recoverable;coercive;coloured;cosmopolitan;coarse;acoustical;accountable;coarser;courteous;covetous;countless;courageously;courageous;recognisable;coarsely;coolly;cold;cool;colloid;colourless;coincident;precocious;cogently;colonial;collectively;cogent;
ovar;ovarian;
off;official;officially;offensively;offensive;off;
o;openly;advantageously;oily;abominable;periodic;european;oldest;ottoman;open;oddly;omnipotent;ostensibly;malarious;odious;young;paradoxical;desirous;occasionally;ago;analogous;enough;hideous;youngest;catholic;occasional;furious;occipital;emotionally;aloud;old;own;optional;geological;geographical;opposite;furiously;operatic;desolate;older;olden;advantageous;oddest;diabolical;odourless;ominous;emotional;younger;oppressive;perilous;periodical;
y;oily;eyeless;very;verily;beyond;young;easy;everyday;anyhow;already;airily;youngest;preparatory;easily;readily;imaginary;airy;yellow;youthful;promissory;yonder;yet;ready;anonymous;younger;
self;selfish;
to;torpid;touching;diatonic;together;intolerable;tolerable;tolerably;antonine;preparatory;totally;touchingly;altogether;intolerant;astonishingly;too;tonic;touchy;anatomical;total;oratorical;
under;understandable;underneath;
cath;catholic;
dia;edwardian;indian;diatonic;cordial;cordially;diabolical;
dif;diffusive;diffident;different;differently;difficult;indifferent;indifferently;
com;compact;completest;comfortably;comfortable;completely;compatible;compatibly;compulsory;comical;commonest;complimentary;comic;competent;incomparably;incomparable;commensurate;combative;comparatively;commandingly;complex;incompetent;comprehensive;common;incomplete;commercial;incompatible;unbecoming;component;commonly;commendable;commoner;complicated;comparable;accomplished;comically;incomprehensible;composite;comparative;complete;commercially;
de;dearly;delectable;deepest;degraded;decisive;delightful;democratic;degenerative;adequate;defective;ardent;indefinitely;decanal;deadly;determinate;dependent;definite;deficient;devilish;delicate;identical;delightfully;decidedly;deathless;devotedly;defiant;decorative;redeeming;decorous;deferential;indefinite;dearest;hideous;demure;devoid;defenceless;devout;definable;ardently;deliberately;delicious;detestable;devoutly;ideal;deliberate;decided;debile;dense;deformed;yonder;deeper;deeply;densely;demoniac;adequately;decent;deplorable;definitely;indefatigably;deciduous;devoted;deaf;dead;dear;deep;
fur;furzy;further;furious;furthermost;furthermore;furiously;
con;conducive;conveniently;inconsequent;contemptible;confoundedly;conjointly;congenial;content;constrainingly;inconsequently;contemptuously;conical;conventional;confident;recondite;conceivable;consummate;continental;contaminated;conformably;confidential;conic;convenient;conscientiously;contiguous;secondly;constant;concordantly;conjugal;coniferous;conversely;conscious;inconsiderable;confidently;conversational;consecutive;contingent;inconsiderate;conversant;contemptuous;convivial;constantly;conscientious;confederate;conspicuous;conclusively;conclusive;continuously;second;consequent;continual;consistent;conceited;constructive;inconveniently;connotative;concise;continually;secondarily;secondary;constitutional;continuous;incontestable;contingently;convulsive;conditional;confirmatory;economical;conciliatory;consequently;considerable;considerably;contemporaneously;contagious;
di;indivisible;dire;periodic;diverse;recondite;indigestible;dilettante;direct;perpendicular;odious;ordinarily;extraordinarily;diligently;directly;divisional;individual;dietetic;indignant;prodigious;indigestion;additional;digestive;extraordinary;indirect;dim;subordinate;readily;accordingly;dimly;indirectly;dirty;individually;divine;conditional;dignified;diplomatic;ordinary;divers;digestible;obedient;periodical;
vant;advantageously;advantageous;
cor;corruptly;concordantly;cordial;cordially;decorative;decorous;correct;accordingly;correspondent;corporate;corrupt;cornish;incorrectly;correctly;
fore;fore;forensic;foreign;foremost;before;
dis;discursive;dishonest;indispensable;distantly;discriminating;indissoluble;distinct;distinctive;disloyal;dissonant;distinguished;disastrous;dismal;distant;disgraceful;dishonourable;distinguishable;distinctly;distressing;
bes;besides;best;
post;posterior;postmortem;apostolic;preposterous;
intro;introductory;
tres;distressing;
up;upland;upper;upright;uppermost;
ur;urban;european;urgent;courteous;courageously;courageous;
ed;edwardian;renowned;aged;amused;assuredly;educational;obedient;
par;parliamentarian;partial;particular;apart;particularly;parliamentary;partly;transparently;apparent;apparently;transparent;parental;partially;parlous;
che;cheerfullest;cheery;chemical;cheerfully;cheerful;cheaper;cheap;
ef;ineffable;effectually;effective;efficient;efficiently;effectual;
pre;impressionable;expressive;previous;preferable;previously;pretty;premature;precipitately;prettiest;previouslsy;express;preliminary;precious;presbyterian;prematurely;predominant;appreciative;comprehensive;representative;precarious;reprehensible;precisely;presently;preparatory;present;impressive;expressly;preposterous;presumably;precipitate;precise;prettier;incomprehensible;precariously;appreciably;appreciable;apprehensive;precocious;impregnable;precautionally;
ver;average;severe;diverse;reverential;severally;averse;reverend;very;adverse;verdant;verily;conversely;conversational;recoverable;vernal;severely;inversely;severest;conversant;versatile;everyday;transverse;vernacular;verbal;proverbially;inverse;ever;proverbial;veritable;verbatim;divers;perverse;
intra;intractable;
em;anaemic;eminent;seemingly;emphatic;redeeming;eminently;empty;exemplary;emotionally;exempt;peremptory;emotional;
en;reverential;energetically;reverend;experimentally;keen;enamoured;inenviably;english;experimental;entire;eminent;offensively;enough;eminently;offensive;alien;transient;transparently;apparent;enormous;apparently;experienced;enthusiastic;enviable;energetic;transparent;keenest;entirely;perennial;parental;keenly;endless;enigmatic;enormously;obedient;
unbe;unbecoming;
ep;deepest;deeper;deeply;deep;
pro;professedly;apropos;properly;appropriately;promising;provincial;improbable;prosperously;providentially;provisionally;probable;probably;proportionably;progressive;profound;progressively;reprobate;approximately;provisional;promptly;provoking;provident;prodigious;prominent;providential;proportionate;profane;promiscuous;productive;prompt;profitless;prostrate;proper;professional;proverbially;profitably;profitable;prolonged;proverbial;appropriate;promissory;prone;prosy;proud;profusely;profoundly;protestant;prophetic;prosperous;
es;deepest;purest;interested;severest;especially;especial;essentially;dearest;surest;easiest;keenest;estimable;essential;interestingly;
ex;expressive;inexplicable;exultant;explosive;exactly;exquisite;experimentally;expensive;excellently;experimental;exquisitely;express;exceedingly;exact;explanatory;expert;extreme;exemplary;exceptional;extremely;excellent;expressly;expeditious;excise;expedient;experienced;execrably;exempt;exterior;extensive;excited;excessively;expansive;extensively;exposed;inextricably;exhaustive;exclusive;exceptionally;external;excitedly;expensively;excessive;exclusively;
sym;symbolic;symmetrical;sympathetic;
syn;synonymous;
mus;mussulman;musical;muscular;amused;musty;
cis;decisive;precisely;excise;precise;concise;
non;nonchalant;anonymous;
nom;nominal;economical;
miss;amiss;admissible;submissive;promissory;
nor;north;normally;normal;norman;enormous;northern;enormously;
ob;objective;obliquely;obvious;obtainable;oblique;obscure;obstinate;obnoxious;objectionable;obviously;obstructive;obedient;obtrusive;
para;paramount;incomparably;incomparable;irreparable;paradoxical;comparatively;parasitic;parallel;preparatory;comparable;separate;separately;comparative;inseparable;
ana;anaemic;analogous;anatomical;
of;often;oftener;aloft;aloof;oft;
extra;extraordinarily;extraordinary;extra;extravagantly;extravagant;
peri;periodic;perishable;experimentally;experimental;peripheral;experienced;imperial;perilous;periodical;
mes;warmest;
mise;miserly;miserably;miserable;
ge;average;eagerly;congenial;advantageously;degenerative;urgent;generous;indigestible;genuinely;angelic;german;indigestion;generally;digestive;together;ingenuous;genially;courageously;courageous;ingeniously;generously;gentle;gently;aged;altogether;genial;geological;geographical;advantageous;genuine;gentlemanly;orange;digestible;gentlemanlike;eager;cogently;ingenuously;generic;general;cogent;
contra;contrariwise;contrary;contrarily;
sam;same;
on;once;only;reasonable;reasonably;diatonic;synonymous;antonine;along;seasonable;
over;over;overburthened;
aff;affectionate;affectionately;affirmative;
oar;seaboard;
hypo;hypocritical;
gi;gigantic;regimental;gifted;prodigious;imaginary;giant;imaginative;imaginable;girlish;original;originally;surgical;
or;ornamental;ornate;oral;ordinarily;extraordinarily;exorbitant;extraordinary;subordinate;preparatory;interior;promissory;original;orally;ordinary;orthodox;orange;organic;originally;oratorical;inexorable;
ano;anodyne;anonymous;
wan;wanting;
ant;antonine;giant;
retro;retrograde;
war;cowardly;edwardian;inward;outward;afterwards;warmest;aware;warlike;warm;warmer;warmly;inwardly;warrantable;
counter;counterfeit;counter;
with;without;withal;within;
gy;egyptian;
demi;academical;epidemic;
