hi;hiding;hindermost;highland;highness;preaching;hindrance;hip;hillock;historian;history;hide;hind;hill;hint;hire;hiss;hive;prohibition;
circum;circumspection;circumference;circumstance;
bin;bing;cabinet;probing;combination;
preter;interpreter;
pur;purchaser;purpose;purport;purslain;purity;purse;purging;purgative;purchase;pursuit;pursuer;purs;purpos;pursuance;
des;desert;desart;designation;description;destiny;predestination;descendant;deserter;design;desire;describer;condescention;desertion;condescension;despair;destroyer;destruction;descent;
pen;compensation;dependency;dependence;dependent;pencil;compendium;appendage;recompence;propension;expence;expense;penitence;pension;pen;penguin;dependant;dispensation;penny;pence;opening;penalty;repentance;dependance;
aph;diaphoresis;aphorism;
enter;entertainment;dysentery;enterprise;enterprize;
per;perspicuity;opera';emperor;perjury;property;permission;perroquet;imperfection;aspersion;person;persecution;perswasion;impertinence;persecutor;perplexity;perception;persuasion;opera;perfection;perfumer;cooper;persevering;operation;performance;perspiration;keeper;perry;
ie;reverie;obedience;disobedience;alienation;besieger;experience;enemie;courier;
exo;exorbitancy;
epi;epitaph;epispastic;epitome;keeping;epigram;
ab;ability;abode;eatable;absence;abridgment;abuse;abstinence;reasonableness;abus;abstract;abundance;absoluteness;parable;absurdity;abhorrence;abatement;inseparable;abjuration;
apo;apothecary;apoplexy;apostle;apology;
ac;coach;acceptance;malefactor;access;accent;acuteness;account;oracle;preacher;accomptant;approach;acquirement;accommodation;preaching;reproach;beach;activity;acnowlegment;act;actress;acid;acre;acts;acccompt;accoutrement;actor;transaction;accession;archdeacon;accusation;accusing;accomplishment;coachful;alacrity;accident;action;acting;accompt;exactness;acquaintance;acrimony;reach;acclamation;
ad;malady;addition;bead;advance;adventurer;admission;administrator;address;adventure;advertisement;adjournment;animadversion;admiral;admirer;adversary;advancement;adjective;beadle;advancing;toad;admonition;ado;admiration;advocate;adoration;advantage;reading;reader;deadness;inadvertency;paradox;administration;adventer;advice;adorer;readiness;admiralty;paradoxe;adulterer;dead;
il;ability;agility;illustration;illness;toil;illegality;exile;ill;oil;peril;ilness;
im;impetus;importation;improvement;imitator;experiment;impossibility;animal;animadversion;impuls;impeachment;importunity;imposition;imperfection;aliment;impediment;impunity;imprest;impiety;imprisonment;impertinence;aim;imparlance;imputation;impatience;impression;imaginary;immobility;antimony;importance;imprecation;image;impudence;animosity;imagination;importer;impropriety;imitation;
ae;coaeval;aethiops;aera;
in;eating;information;infatuation;intemperance;incentive;indignity;affinity;inquest;injustice;intrepidity;instinct;income;searching;kain;inflammability;intestine;inhumanity;inconvenience;inconveniency;coating;innocence;insolence;insolency;urine;invitation;instrument;invoice;intendant;indiscretion;indorser;inward;denomination;incident;instructor;industry;ingress;insult;indigo;discovering;insurrection;eminence;eminency;indignation;intelligence;instant;invasion;intimation;rein;influence;injury;inhabitant;individual;inventary;inch;inspection;dealing;inclemency;encouraging;infliction;infant;infamy;infection;easiness;preeminence;infidelity;inside;reasoning;inquisitor;indulgency;indulgence;insect;incroachment;increase;indecorum;covering;offing;being;invalid;bearing;ingratitude;invention;intimacy;infidel;reading;intent;institution;intention;imaginary;ink;inn;int;nominative;nomination;inventor;insufficiency;infirmity;insurance;incursion;invader;instrumentality;coin;incumbrance;indictment;instance;persevering;coming;imagination;nominee;inadvertency;indolence;inspector;inclination;infusion;intreaty;inroad;indemnity;keeping;coinage;incapacity;indifference;iniquity;instigation;inferiority;inheritance;sealing;intrenchment;indecency;readiness;intangling;informer;opening;integrity;inscription;insulter;inconsistency;inhabiter;intrigue;infancy;inlisting;incendiary;inferiour;inseparable;inquiry;instruction;inclosure;
ag;aggravation;agility;message;agent;antagonist;discouragement;agreement;agony;encouraging;postage;aga;age;advantage;imaginary;arrearage;ague;image;imagination;agency;paragraph;aggressor;coinage;eagerness;encouragement;courage;paragon;
inter;intercours;interfering;interpretation;interposition;interruption;intercourse;interest;interpreter;interval;intercession;interview;interdiction;intermission;
ir;irrationality;irreverence;desire;iron;air;irreligion;affair;irresolution;affirmation;
noun;pronounciation;noun;
al;alderman;allegiance;offal;dialogue;dealer;alledgeance;reality;aliment;cordial;allurement;dealing;parallel;ale;alarm;alder;allowance;alienation;alias;alphabet;catalogue;alliance;allay;algortross;ally;alum;alteration;seal;alacrity;sealing;realm;dialect;penalty;analysis;analogy;deal;
an;anguish;bean;anxiety;anchoring;animal;animadversion;ancient;answering;comedian;ancestor;assurance;anchor;angel;anger;ankle;annal;answer;insurance;annuity;animosity;anvil;anus;anecdote;orange;
ap;appetite;apartment;appellation;apprenticeship;appropriation;disappointment;apiary;applause;approach;application;appeal;appendage;apparatus;apprentice;cheapness;apparel;apple;apron;approbation;aptness;appearance;apprehension;appointment;
ar;earldom;dearth;earthquake;armourer;desart;article;earth;cathartic;emissary;armament;arrival;apiary;ardor;armada;diarrhoea;arrear;arrest;earwig;arrogance;rear;earnestness;earl;chearfulness;diary;beard;artillery;arbour;arrow;artist;array;arm-chair;yeard;ark;arm;art;arrack;yard;artery;alarm;arrangement;bearing;ear;year;arithmetick;imaginary;arrearage;arraign;army;arithmetic;arguing;earnest;argument;
as;disaster;coast;association;assistant;assign;assise;assize;astonishment;assessment;associate;assertion;reason;aspersion;ascendant;ease;east;assurance;beast;easiness;reasoning;ash;ass;ascent;reasonableness;toast;assignation;disease;alias;diseas;season;assistance;aspect;assignment;ashet;coasting;assessor;assembly;assent;asylum;assignee;assis;assault;astronomy;
re;result;remis;redish;revenge;relic;revenue;remain;remark;rebate;revulsion;retreating;recruiting;reverie;restoring;religion;reverse;rectitude;reply;regulation;remonstrance;rebellion;resentment;refuge;remnant;repeating;remedy;revelation;redress;relative;residence;receiver;revolution;relation;reversion;refuse;repetition;repulsion;recreation;reality;correspondence;receipt;reception;resistance;reprieve;review;reflecting;reflection;resignation;arrear;republick;remorse;insurrection;receiving;arrest;retirement;reserve;rescue;regimental;recusant;reckoning;irreverence;removal;rear;reason;reef;reel;rein;repellency;rent;correction;rev.;rest;director;reflexion;reproach;refusal;agreement;surrender;remembrance;recompence;refreshment;desire;registring;reasoning;rejoicing;resort;care;retiring;reparation;restraint;reducing;repayment;reward;reasonableness;recluse;reading;respiration;reeling;regret;reader;redemption;renovation;restorer;respect;retreat;acre;repose;report;regency;rendevouz;relict;repute;relief;record;relish;arrearage;retinue;career;remainder;relaxation;respite;reluctancy;reluctance;correspondent;repository;recovery;restriction;request;revolting;refugee;irreligion;red;carelessness;regale;regard;direction;reckoner;rebuke;revolt;recruit;regality;erection;reduction;rendezvous;repair;resolution;reformation;rebel;readiness;realm;hire;reach;regent;retaliation;recrement;reproof;reverence;resemblance;republic;regiment;recourse;regeneration;region;serenade;regimen;irresolution;reign;repentance;receptacle;warren;return;reputation;reference;regt.;register;resting;recommendation;regularity;
at;eating;attitude;attempt;anatomy;coating;attestation;emanation;eatable;denomination;attack;attraction;attendant;coronation;attractive;attainment;attaining;apparatus;decoration;reparation;adoration;oratorio;attorney;alienation;attendance;preparation;death;attainder;nominative;nomination;attribute;attrition;oat;coat;entreaty;operation;imagination;anathema;attention;oratory;seat;diathesis;attachment;oration;att.;separation;combination;atmosphere;oath;seath;abatement;orator;
meta;metal;
male;malecontent;male;malefactor;malevolence;
trans;transpiration;transubstantiation;translation;transgression;translator;transaction;transferring;transport;transition;transfer;
sub;subornation;subsistence;sublimity;subordination;subscription;subscriber;substantive;substraction;submission;subject;substance;subsidy;subjection;
messe;messenger;
be;better;beholder;bead;bean;beck;beef;beer;bell;rebellion;debenture;benevolence;obedience;believer;beggar;benefit;beneficence;prebend;disobedience;beginning;beginner;behalf;beadle;beach;beard;beast;bed;bee;bet;benefactor;being;bearing;belly;bedding;bench;berry;benefice;beauty;rebel;abbe`;
south;south;
mys;mystery;
bi;ability;bill;bird;bite;bible;debitor;gibier;billet-doux;exorbitancy;birth;bit;bigness;bitch;debit;bishop;bigotry;archbishop;billow;prohibition;
out;outrage;youth;
gain;gain;
anti;antidote;antimony;antipathy;antiquity;
sur;surplus;insurrection;assurance;surrender;surff;surface;insurance;surety;surprise;surprize;surgeon;absurdity;
se;dissection;servitude;desert;averseness;section;seraglio;reverse;resentment;searching;prosecutor;observance;sense;senna;seriousness;presence;deserter;serv.;series;purse;absence;dissenting;dissention;converse;assessment;severity;sending;reserve;course;security;serjeant;sensibility;secretion;assertion;intercourse;ease;persecution;cheese;concourse;sensualist;sensuality;persecutor;setting;insect;expense;prosecution;case;prosecuting;sequel;verse;representation;representative;seizure;seller;secret;sensation;settlement;second;sewing;disease;observing;present;sentence;preservation;preservative;diseas;season;dissenter;search;service;desertion;persevering;discourse;sea;set;sex;selves;secretary;seisor;sermon;seal;seam;seat;seed;sect;sens;prose;sery;sett;sexe;consequence;assessor;preserver;assembly;presentation;sealing;senate;mistresse;servant;serosa;assent;observation;geese;separation;senior;resemblance;recourse;essential;serenade;secrecy;session;seath;sentiment;consent;inseparable;
noon;noon;forenoon;
mis;remis;mistress;oeconomist;premis;mischief;promis;mistresse;
ka;kain;kalendar;
pene;penetration;
mal;malt;malady;animal;malice;maliciousness;malignant;malignity;
ker;oker;
ke;dike;musket;cake;key;yoke;token;kennel;keeping;keeper;kettle;
semi;seminary;
ca;cannister;calendar;causeway;caravance;canvass;capuchin;castle;carpenter;candour;cartridge;cabbage;cardinal;caution;escape;cavalier;captivity;cabinet;calmness;cashier;carack;captain;caftan;casuist;caravel;cadi;cafe;cake;call;calm;calf;cant;camp;cap.;cane;cape;cast;cask;cash;case;card;care;caus;caul;decanting;can;cap;cas;canary;cambrick;candidate;cartel;decay;carrot;candle;carpet;callicoe;cacique;career;cable;capitulation;cacao;precaution;cadet;calling;carelessness;caring;captive;causing;casting;cachexy;camphire;calamity;incapacity;carcass;camel;calve;canvas;canoe;capital;cargo;capt.;capon;capture;causway;capacity;carriage;cause;cannon;campaign;captn.;carrier;
ambi;ambition;
archi;searching;architect;architecture;
miz;mizen;
abb;abbess;abby;abbe`;
a;a;averseness;amity;opera';aqueduct;amour;austerity;idea;avarice;examination;authority;aversion;ambassador;aid;aim;air;awe;ammunition;amusement;examen;author;audaciousness;ambassadress;example;opera;oak;sea;beauty;ambush;auditor;seam;audience;avenue;aunt;amendment;amber;amend;amount;autumn;
vice;vice;vice-admiralty;vice-roy;device;advice;
e;posture;eating;earldom;oeconomist;affectation;etymology;forreigner;museum;diet;posterity;e';e.;equinoctial;earthquake;income;offer;earth;equilibrium;equity;urine;coney;eighth;comer;eatable;affection;cabinet;eunuch;electric;earwig;eloquence;muse;equality;elector;gibier;earnestness;equal;east;earl;election;electing;event;yeard;ale;apparel;die;ebony;evid.;ear;egg;year;evidence;errand;ell;errant;ewe;eye;elegancy;elegance;ermine;elasticity;ellips;surety;evacuation;evasion;elocution;yellow;even;evil;eternity;evening;nominee;ermit;toe;equipage;offering;electrician;electricity;electuary;yew;error;anecdote;oeconomy;diuretic;elegy;dialect;elder;erudition;eclipse;egress;earnest;cocatoe;
cata;catalogue;
one;commissioner;coroner;
i;existence;forreigner;if;ignominy;itching;designation;musick;orison;ichneumon;comparison;encomium;ignorance;purity;emanation;reality;eighth;apiary;officer;ichor;idea;idol;island;ipecacuan.;severity;isthmus;antagonist;deprecation;coronation;malice;design;decoration;maliciousness;isle;aid;itch;reparation;adoration;penitence;oratorio;seizure;musician;malignant;arithmetick;alias;ice;preparation;parishioner;acid;issue;malignity;aphorism;deity;deism;operation;idler;idleness;seisor;officiousness;islander;onion;oration;arithmetic;exigence;parish;parity;separation;music;reign;transition;foreigner;office;
co;colouring;coach;coast;discoverer;coyner;colour;colony;collop;collar;cowardice;courtesy;coating;copulation;colliquation;council;cognizance;cockade;account;collection;intercours;copper;courtier;discovering;cousin;course;coffin;decoction;court;cours;count;coun.;cough;cover;coaeval;discouragement;college;cotemporary;intercourse;colloquy;discours;counsel;encouraging;country;coffee;couple;column;discovery;county;covering;cod;cot;cow;countess;cottage;colewort;coppice;accoutrement;coat;cock;col.;coin;cold;copy;cook;recovery;cost;cooper;discourse;collector;coasting;courier;countenance;colluvies;coinage;coachful;encouragement;colonel;courage;cotton;counsellor;recourse;co-operation;covetousness;cochineal;coldness;cocatoe;
off;offer;offal;offspring;officer;offence;offcier;offing;offering;officiousness;offender;office;
o;ogle;epocha;opinion;occupation;od;ox;ounce;omnipotence;oker;opera';ostler;omen;abode;dialogue;omniscience;odium;ouse;geography;oxen;opportunity;olympiad;ado;other;occurrence;catalogue;opera;opiate;cacao;oak;oat;odd;ode;oil;yoke;ostracism;owl;period;animosity;idiom;opium;ocean;emotion;opposition;opposite;occasion;paradox;oyster;ostentation;oppressor;paradoxe;opening;parole;oath;owner;oct.;oppression;analogy;
ante;antecedent;
supra;supra-cargo;
y;y;malady;anarchy;coyner;yesterday;fury;emissary;coney;apiary;youth;diary;agony;yeard;yard;discovery;year;eye;decay;abby;imaginary;key;antimony;prey;comedy;entreaty;yoke;cony;recovery;yellow;toy;enemy;oyster;oratory;yew;oeconomy;asylum;analysis;
self;self;
to;torture;anatomy;topick;malefactor;toleration;tortois;tongue;to-night;astonishment;tomorrow;debitor;to-morrow;toad;toil;toll;tone;tomb;tool;tory;town;topsail;township;oratorio;attorney;epitome;toast;to-day;actor;token;toe;ton;top;tow;toy;topsailyard;topic;oratory;touch;tower;tonnage;tobacco;touchwood;orator;cocatoe;
arch;anarchy;archon;search;archdeacon;archbishop;arch;
under;understanding;
cath;cathartic;cathedral;
dia;dialogue;diaphoresis;diarrhoea;comedian;diamond;cordial;diary;diameter;diathesis;dialect;
hyp;hyp;
dys;dysentery;dyspnoea;
com;common-wealth;company;compass;compression;communication;compensation;compound;communicant;income;comrade;comparison;encomium;commissioner;competition;composure;comer;combatant;commerce;commencement;commission;competency;comedian;companion;companies;accomptant;committee;complaint;compendium;combat;competitor;accommodation;complex;complexion;commencing;recompence;compliance;complement;commandant;common;community;communion;commodore;comptroller;compassion;comedy;commemoration;comb;commodity;coming;complaisance;composition;accomplishment;commentary;accompt;comment;compliment;comfort;complacency;commander;combination;command;commendation;commitment;commotion;recommendation;commentator;commandment;
dif;edifice;difficulty;diffidence;indifference;difference;
de;pardeloe;depredation;condemnation;dearth;dejection;alderman;devotion;decision;debenture;demerit;decency;warder;warden;deputy;abode;defender;delivery;dependency;decree;dependence;dealer;dependent;denomination;idea;depravity;degradation;debitor;determination;decoction;deceiver;deprecation;delicacy;degeneracy;demand;debate;deponent;dealing;deliverance;department;deviation;decoration;defect;defeat;decanting;indecorum;order;alder;debtor;deg;deposing;defendant;default;deformity;delight;devise;reader;redemption;deliverer;debit;decay;deficiency;death;deportment;detachment;detail;deadness;ode;device;deity;deism;cadet;decorum;defiance;delay;detriment;departure;archdeacon;dependant;indemnity;denial;depth;defence;dexterity;delusion;devil;predecessor;derision;indecency;deceit;hide;degree;declension;wandering;demonstration;declaration;denunciation;definition;cordelier;offender;deal;dead;deck;debt;deer;deg.;deed;deduction;dep.;dent;dependance;
fur;fury;furlong;furnace;furniture;fur;
con;malecontent;oeconomist;condemnation;content;context;contest;consciousness;conduct;constabulary;confusion;conclave;conscience;confident;consul;contact;conjunction;convent;contingency;congee;inconvenience;inconveniency;coney;conqueror;conductor;conversion;conversing;consumption;conjecture;conceit;concert;concern;concealment;converse;consternation;consumpt;consultation;contemplation;constitution;confederacy;controversy;constancy;conference;convoy;confidence;confinement;conformity;concourse;conciseness;confederate;concession;consulship;consistency;consistence;confession;constable;congregation;contempt;convocation;conclusion;second;conveniency;convenience;connoisseur;continency;contrivance;conspiracy;concurrence;concord;construction;conspirator;condition;continuation;conception;continuance;concealing;consideration;cony;connection;condescention;concubine;conveyance;confabulation;consignation;confessor;conviction;archdeacon;condescension;continent;consequence;convulsion;consolation;consort;constraint;oeconomy;conquest;inconsistency;contention;contexture;contributor;conjugation;conversation;confirmation;discontinuance;contribution;consent;connnexion;
di;hiding;indignity;diet;addition;dike;dirt;obedience;ordinance;cowardice;contradiction;division;endive;subordination;dimple;diligence;odium;digression;indigo;prodigy;indignation;compendium;edict;dividend;dinner;director;verdict;individual;dictionary;dignity;digestion;cadi;diversity;edition;diversion;die;reading;divination;dilatation;condition;diminution;ditch;predilection;ditto;indictment;idiom;direction;divine;dimension;readiness;diuretic;interdiction;absurdity;divinity;
vant;advantage;
cor;corporation;correspondence;corps;corte;coroner;correction;discord;cordial;coronation;decoration;indecorum;concord;record;correspondent;corp;corn;cork;cord;decorum;corruption;corner;cornet;cordelier;
fore;forest;forenoon;foreigner;
dis;redish;dissection;disaster;dish;discoverer;discussion;distemper;dissolution;dissuasion;distress;disappointment;dissimulation;disposing;indiscretion;dissenting;dissention;dishonour;disgust;displeasure;disturbance;discovering;distinction;disobedience;dispatch;discouragement;disquiet;discord;dispute;distiction;discours;disguise;disparity;display;discovery;disposal;disposition;discipline;disease;distance;dismay;diseas;distaff;dissenter;disciplin;disciple;discourse;discernment;dispensation;discipleship;disgrace;discontinuance;discretion;
bes;abbess;besieger;
post;posture;posterity;expostulation;postage;post;apostle;
intro;introduction;intromission;
um;museum;encomium;odium;compendium;indecorum;decorum;alum;
tres;mistress;tress;distress;trespass;actress;mistresse;
up;uproar;couple;
ur;posture;courtesy;urine;intercours;courtier;course;court;cours;discouragement;intercourse;discours;urgency;encouraging;concourse;discourse;courier;encouragement;courage;diuretic;recourse;
entre;entreaty;
ed;edifice;obedience;comedian;disobedience;edict;cathedral;edge;edition;education;comedy;seed;deed;
par;pardeloe;parliament;partner;parting;party;comparison;particular;apartment;particle;partnership;parenthesis;part;park;department;disparity;imparlance;apparel;partition;parterre;parishioner;parsley;departure;pardon;parcel;parent;partiality;parish;parity;parole;parson;
ef;effeminacy;effect;beef;malefactor;effendi;effort;reef;efficacy;effendi';effusion;
che;chesnut;preacher;cherry;cheque;chearfulness;cheese;cheerfulness;exchequer;cheapness;cachexy;cherishing;check;cheek;chest;
pre;depredation;expression;pretence;premis;compression;preference;president;pretender;premiss;prevention;preventing;precipitation;predestination;apprenticeship;presence;preciseness;prerogative;express;preacher;precinct;preliminary;interpretation;prebend;deprecation;precedent;imprest;preaching;preposition;pretension;prescience;presumption;prevalency;apprentice;preeminence;precipice;representation;representative;prevarication;preface;impression;present;preferment;preparation;preservation;preservative;prey;press;pressure;imprecation;precaution;predilection;precedence;pretention;preserver;presentation;prelate;predecessor;pre-eminence;prejudice;precept;apprehension;empress;presumtion;
ver;averseness;version;discoverer;reverie;reverse;reversion;advertisement;vers;verb;animadversion;conversion;conversing;adversary;converse;discovering;severity;irreverence;cover;vermin;verdict;vertebrae;aversion;verge;diversity;diversion;vertue;discovery;verse;covering;recovery;persevering;inadvertency;versification;reverence;conversation;
em;emperor;embassador;emissary;emanation;emunctory;emulation;empire;eminence;eminency;emphasis;discouragement;agreement;embryo;preeminence;amusement;embroidery;employer;emergency;employment;enemie;employ;emotion;exemption;enemy;encouragement;empress;embassy;emulsion;abatement;
en;enmity;entrance;envoy;entry;messenger;obedience;experiment;encomium;entring;endive;preciseness;encounter;parenthesis;enquiry;enlargement;aliment;agent;engine;eminence;eminency;disobedience;offence;irreverence;discouragement;agreement;encouraging;preeminence;enjoyment;conciseness;energy;end;amusement;alienation;envy;mizen;experience;enemie;agency;enormity;enemy;parent;encroachment;sameness;encouragement;ensign;reverence;enthusiasm;offender;engagement;abatement;
ep;epocha;keeper;
pro;progeny;progress;proceeding;prosperity;probatum;professor;improvement;property;proficiency;prosecutor;product;produce;prologue;probability;promotion;proposition;problem;promontory;appropriation;prospect;procession;procedure;propagation;providence;provision;prodigy;proclamation;protestation;approach;promise;probing;profession;reproach;propriety;proximity;propension;prosecution;pronounciation;pronunciation;prosecuting;protection;procreation;profaneness;proficient;apron;propserity;production;approbation;promis;provocation;project;proposal;procurement;proxy;prophecy;proprietor;prophesy;proof;prose;impropriety;proportion;reproof;protectress;prohibition;promoter;profusion;province;process;profit;prophet;
es;yesterday;escape;preciseness;diaphoresis;essoin;essay;cheese;easiness;conciseness;interest;esq;estate;esq;;estimate;establishment;sameness;readiness;geese;estimation;essential;esteem;
ex;expression;existence;explication;extent;explosion;experiment;exhalation;exercis;expectorant;express;exhortation;excitation;expectation;exploit;examination;excus;executioner;extream;extreme;exclamation;expostulation;excursion;exile;explanation;expence;expense;exchequer;exercise;extremity;executor;expiration;exception;examen;example;export;expedition;exchr.;experience;excise;expedient;execution;excess;exertion;expiring;exemption;explaining;extenuation;exportation;exposee;exclaiming;exactness;exigence;execration;excellence;excellency;excuse;exchange;excrement;
sym;symptom;
syn;syntax;
mus;museum;musick;musket;muslin;musqueteer;muse;musk;musician;amusement;mustard;muster;music;
mess;message;messuage;
cis;decision;preciseness;conciseness;excise;cistern;
nom;oeconomist;denomination;nominative;nomination;nominee;oeconomy;
miss;admission;premiss;permission;emissary;commissioner;commission;intromission;omission;submission;intermission;
nor;north;enormity;
ob;obedience;objection;observance;disobedience;obscurity;object;oblivion;observing;obstinacy;obligation;obstruction;observation;
para;parallel;apparatus;reparation;preparation;paragraph;paradox;paradoxe;parable;separation;paragon;inseparable;
ana;anarchy;anatomy;emanation;anathema;analysis;analogy;
cat;deprecation;cat;cattel;cattle;imprecation;cocatoe;
extra;extravagance;extravagancy;
of;proof;reproof;
peri;experiment;experience;period;periwig;peril;
mes;mestizo;
mise;misery;promise;
ge;progeny;gent.;messenger;generality;genitive;congee;message;geography;agent;gender;discouragement;degeneracy;urgency;generosity;edge;verge;digestion;postage;age;angel;anger;advantage;besieger;regency;gesture;arrearage;image;genius;agency;generation;coinage;eagerness;encouragement;courage;exigence;regent;surgeon;geese;orange;regeneration;general;
contra;contradiction;contraction;contrary;contrast;contract;contrariety;
sam;sameness;
on;decision;admission;permission;emanation;denomination;commission;antagonist;deprecation;reason;coronation;agony;intromission;iron;reasoning;decoration;reparation;adoration;reasonableness;archon;alienation;preparation;nomination;antimony;season;imprecation;operation;imagination;omission;submission;onion;oration;surgeon;separation;combination;region;paragon;intermission;
aff;affectation;affinity;affront;affliction;affection;affright;affair;affirmation;
over;overture;
hypo;hypocrisy;hypocrite;hypothesis;
oar;oar;
gi;agility;girding;purging;engine;regimental;beginning;gibier;beginner;gift;gill;girl;encouraging;gibberish;registring;gig;girdle;imaginary;gilding;giving;imagination;original;ginger;regiment;region;regimen;register;
or;subornation;emperor;ordinance;orison;subordination;oracle;exorbitancy;adoration;order;oratorio;organ;aphorism;ornament;oratory;oration;original;orange;orator;
ore;diaphoresis;adorer;
wan;want;wand;wandering;
ant;antagonist;ant;
war;warrant;warder;cowardice;warden;inward;reward;ward;warmth;war;warren;
counter;encounter;counterfeiting;
umbe;umber;
gy;gypsy;prodigy;analogy;
forr;forreigner;
